{
  "Component-dbg.js": 1563351648000,
  "manifest.json": 1563362516645,
  "manifest-bundle.zip": 1563362516448,
  "Component-preload.js": 1563362516605,
  "Component.js": 1563351648000,
  "neo-app.json": 1563362516637,
  "di.code-validation.core_issues.json": 1563362518172,
  "resources.json": 1563362518181,
  "visual_ext_index.html": 1563351648000,
  "localService/metadata.xml": 1563351648000,
  "index.html": 1563351648000
}